{
    "version": "81.0a1.20200823211533",
    "description": "Nightly builds of Firefox: the popular open source web browser.",
    "homepage": "https://www.mozilla.org/en-US/firefox/nightly/",
    "license": "MPL-2.0",
    "architecture": {
        "64bit": {
            "url": "https://archive.mozilla.org/pub/firefox/nightly/2020/08/2020-08-23-21-15-33-mozilla-central/firefox-81.0a1.en-US.win64.installer.exe#/dl.7z",
            "hash": "sha512:80c954719f0c359c1094d337e52a26730f4669f7b2c7b2d246552d9533ac5c4ae901d610269e7de2a2ec7dbcdcb51d8f25feb304ec29b67012ed199c44c947ff"
        },
        "32bit": {
            "url": "https://archive.mozilla.org/pub/firefox/nightly/2020/08/2020-08-23-21-15-33-mozilla-central/firefox-81.0a1.en-US.win32.installer.exe#/dl.7z",
            "hash": "sha512:5c47bb558e19894f816d172d345f08f28f3f10d1d305f8ccf8a58aabb5b35e347a8ad6fcbbf8b2c00d842c54521aec858fab33ff1ce36309cd834cf5b887c1a1"
        }
    },
    "extract_dir": "core",
    "bin": [
        [
            "firefox.exe",
            "firefox-nightly"
        ]
    ],
    "shortcuts": [
        [
            "firefox.exe",
            "Firefox Nightly"
        ]
    ],
    "checkver": {
        "url": "https://aus5.mozilla.org/update/6/Firefox/60.0/_/WINNT_x86_64-msvc-x64/en-US/nightly/_/_/_/_/update.xml",
        "regex": "appVersion=\"([\\w.]+)\".*?buildID=\"((?<yyyy>\\d{4})(?<mm>\\d{2})(?<dd>\\d{2})(?<hr>\\d{2})(?<mi>\\d{2})(?<se>\\d{2}))",
        "replace": "${1}.${2}"
    },
    "autoupdate": {
        "architecture": {
            "64bit": {
                "url": "https://archive.mozilla.org/pub/firefox/nightly/$matchYyyy/$matchMm/$matchYyyy-$matchMm-$matchDd-$matchHr-$matchMi-$matchSe-mozilla-central/firefox-$majorVersion.$minorVersion.en-US.win64.installer.exe#/dl.7z",
                "hash": {
                    "url": "$baseurl/firefox-$majorVersion.$minorVersion.en-US.win64.checksums"
                }
            },
            "32bit": {
                "url": "https://archive.mozilla.org/pub/firefox/nightly/$matchYyyy/$matchMm/$matchYyyy-$matchMm-$matchDd-$matchHr-$matchMi-$matchSe-mozilla-central/firefox-$majorVersion.$minorVersion.en-US.win32.installer.exe#/dl.7z",
                "hash": {
                    "url": "$baseurl/firefox-$majorVersion.$minorVersion.en-US.win32.checksums"
                }
            }
        }
    }
}
